Gov 50 Final Project
…
SDM_successrate_merged <- SDM_freedomlevel_internet_successrate |>
  filter(press_freedom == 2) |>
  right_join(surpressed_successrate, by = "bench_dist") 

SDM_successrate_merged <- SDM_successrate_merged |>
  ungroup() |>
  select(-press_freedom) |>
  rename(Free_Success_Rate = success_rate.x, Unfree_Success_Rate = success_rate.y)
  
SDM_successrate_merged

# A tibble: 21 × 3
   bench_dist Free_Success_Rate Unfree_Success_Rate
        <dbl>             <dbl>               <dbl>
 1        -10            0                   0.2   
 2         -9            0                   0.0192
 3         -8            0.0667              0.207 
 4         -7            0                   0.0635
 5         -6            0                   0.115 
 6         -5            0.2                 0.146 
 7         -4            0.0435              0.199 
 8         -3            0.125               0.0930
 9         -2            0.04                0.0238
10         -1            0.25                0.0571
# ℹ 11 more rows
…
